Homework Task 2 â€“ Basics in R
…
tidyverse_1.2.1

2. Tibbles (tidy tables)

The ToothGrowth data set comes with base R. You can read about this data set by running ?ToothGrowth in the console. It is a data frame. In this course, we prefer to use tibbles (tidy tables) instead of data frames.

a.

Convert the ToothGrowth data frame into a tibble using as_tibble(). Put this in a new variable called iris_tibble. Then print the tibble using the print() function.

# YOUR CODE HERE
iris_tibble = as_tibble(ToothGrowth)
print(iris_tibble)

## # A tibble: 60 x 3
##      len supp   dose
##    <dbl> <fct> <dbl>
##  1   4.2 VC      0.5
##  2  11.5 VC      0.5
##  3   7.3 VC      0.5
##  4   5.8 VC      0.5
##  5   6.4 VC      0.5
##  6  10   VC      0.5
##  7  11.2 VC      0.5
##  8  11.2 VC      0.5
##  9   5.2 VC      0.5
## 10   7   VC      0.5
## # â€¦ with 50 more rows
…
 = support factor

typeof(ToothGrowth$supp) [1] â€œintegerâ€

The values are stored as integers because it is used as a factor, despite the original vector being initialised with strings.

b.

Starting from the complete ToothGrowth data set, filter only the guinea pigs that were give orange juice.

# YOUR CODE HERE
iris_tibble %>% filter(supp == 'OJ')

## # A tibble: 30 x 3
##      len supp   dose
##    <dbl> <fct> <dbl>
##  1  15.2 OJ      0.5
##  2  21.5 OJ      0.5
##  3  17.6 OJ      0.5
##  4   9.7 OJ      0.5
##  5  14.5 OJ      0.5
##  6  10   OJ      0.5
##  7   8.2 OJ      0.5
##  8   9.4 OJ      0.5
##  9  16.5 OJ      0.5
## 10   9.7 OJ      0.5
## # â€¦ with 20 more rows
…
